{
  "address": "opc.tcp://10.102.249.1:4840",
  "periodic-requests": "true",
  "sub-nodes": [
    [
      "0:Objects",
      "4:PLC1",
      "4:MAIN",
      "4:bMotorConveyorBeltDrillingMachine"
    ],
    [
      "0:Objects",
      "4:PLC1",
      "4:MAIN",
      "4:bMotorConveyorBeltFeed"
    ],
    [
      "0:Objects",
      "4:PLC1",
      "4:MAIN",
      "4:bMotorConveyorBeltMillingMachine"
    ],
    [
      "0:Objects",
      "4:PLC1",
      "4:MAIN",
      "4:bMotorConveyorBeltSwap"
    ],
    [
      "0:Objects",
      "4:PLC1",
      "4:MAIN",
      "4:bMotorDrillingMachine"
    ],
    [
      "0:Objects",
      "4:PLC1",
      "4:MAIN",
      "4:bMotorMillingMachine"
    ],
    [
      "0:Objects",
      "4:PLC1",
      "4:MAIN",
      "4:bMotorSlider1Backward"
    ],
    [
      "0:Objects",
      "4:PLC1",
      "4:MAIN",
      "4:bMotorSlider1Forward"
    ],
    [
      "0:Objects",
      "4:PLC1",
      "4:MAIN",
      "4:bMotorSlider2Backward"
    ],
    [
      "0:Objects",
      "4:PLC1",
      "4:MAIN",
      "4:bMotorSlider2Forward"
    ],
    [
      "0:Objects",
      "4:PLC1",
      "4:MAIN",
      "4:bPhototransistorConveyorBeltSwap"
    ],
    [
      "0:Objects",
      "4:PLC1",
      "4:MAIN",
      "4:bPhototransistorDrillingMachine"
    ],
    [
      "0:Objects",
      "4:PLC1",
      "4:MAIN",
      "4:bPhototransistorLoadingStation"
    ],
    [
      "0:Objects",
      "4:PLC1",
      "4:MAIN",
      "4:bPhototransistorMillingMachine"
    ],
    [
      "0:Objects",
      "4:PLC1",
      "4:MAIN",
      "4:bPhototransistorSlider1"
    ],
    [
      "0:Objects",
      "4:PLC1",
      "4:MAIN",
      "4:bPushButtonSlider1Front"
    ],
    [
      "0:Objects",
      "4:PLC1",
      "4:MAIN",
      "4:bPushButtonSlider1Rear"
    ],
    [
      "0:Objects",
      "4:PLC1",
      "4:MAIN",
      "4:bPushButtonSlider2Front"
    ],
    [
      "0:Objects",
      "4:PLC1",
      "4:MAIN",
      "4:bPushButtonSlider2Rear"
    ]
  ],
  "period": 200,
  "topics": [
    "opcua/get",
    "opcua/post",
    "opcua/sub"
  ]
}